…
## comparisons done in paper were astrocyte vs all others (oligo + neuron), 
## oligo vs all others (astrocyte + neuron), neuron vs all others (astrocyte + oligo),
## OPCs vs mature (MOG+) oligodendrocytes, MOG+ vs MOG- OLs,
## in vivo astrocytes vs cultured astroglia
## all pathways here can be assumed to be upregulated
names_use <- c('cahoy_astrocyte', 'cahoy_oligodendrocyte',
               'cahoy_neuron', 'cahoy_astro_young',
               'cahoy_astro_mature', 'cahoy_OPC',
               'cahoy_OL_myel', 'cahoy_MOG_pos',
               'cahoy_astro_in_vivo', 'cahoy_cultured_astroglia')

genelist <- read_xls(file.path(cahoy.data.folder, xls_files[1]), skip = 1)
# # A tibble: 2,618 x 4
# X__1 `Probe Set ID` `Gene Name` `Fold Enriched In Astrocytes`
# <dbl> <chr>          <chr>                               <dbl>
#   1     1 1440142_s_at   Gfap                                 84.9
# 2     2 1434449_at     Aqp4                                 79.8
# 3     3 1430700_a_at   Pla2g7                               65.1
# 4     4 1436611_at     Slc39a12                             62.2
# 5     5 1448139_at     Mlc1                                 58.6
# 6     6 1436231_at     AU067665                             57.9
# 7     7 1418937_at     Dio2                                 56.0
# 8     8 1428114_at     Slc14a1                              54.4
# 9     9 1424400_a_at   Aldh1l1                              54.0
# 10    10 1419559_at     Cyp4f14                              53.5
# ... with 2,608 more rows
…
